{
  "project_info": {
    "project_id": "eafall-9d896",
    "project_number": "393010172961",
    "name": "eafall"
  },
  "client": [
    {
      "client_info": {
        "mobilesdk_app_id": "1:393010172961:android:237f11d4abd42eef",
        "client_id": "android:com.yaroslavlancelot.eafall",
        "client_type": 1,
        "android_client_info": {
          "package_name": "com.yaroslavlancelot.eafall"
        }
      },
      "oauth_client": [],
      "api_key": [ { "current_key": "AIzaSyCfgaDtRT0vLoUKuFzQYFJMxflyLiXBqoU" } ],
      "services": {
        "analytics_service": {
          "status": 2,
          "analytics_property": {
            "tracking_id": "UA-71865833-1"
          }
        },
        "cloud_messaging_service": {
          "status": 1,
          "apns_config": []
        },
        "appinvite_service": {
          "status": 1,
          "other_platform_oauth_client": []
        },
        "google_signin_service": {
          "status": 1
        },
        "ads_service": {
          "status": 1
        }
      }
    }
  ],
  "client_info": [],
  "ARTIFACT_VERSION": "1"
}